example/result/cnt1.log
VCD info: dumpfile dump.vcd opened for output.
                   0 1 0 0 0 00 1 00
                  20 0 0 0 0 00 1 00
                  40 0 0 1 0 00 1 00
                  90 0 1 1 0 00 1 00
                 100 0 0 1 0 00 1 00
                 190 0 1 1 0 00 1 00
                 195 0 1 1 0 01 0 00
                 200 0 0 1 0 01 0 00
                 290 0 1 1 0 01 0 00
                 295 0 1 1 0 02 0 00
                 300 0 0 1 0 02 0 00
                 390 0 1 1 0 02 0 00
                 395 0 1 1 0 03 0 00
                 400 0 0 1 0 03 0 00
                 490 0 1 1 0 03 0 00
                 495 0 1 1 0 00 0 00
                 500 0 0 1 0 00 0 00
                 590 0 1 1 0 00 0 00
                 595 0 1 1 1 01 0 00
                 600 0 0 1 1 01 0 00
                 605 0 0 1 0 01 0 00
                 690 0 1 1 0 01 0 00
                 695 0 1 1 1 02 0 01
                 700 0 0 1 1 02 0 01
                 705 0 0 1 0 02 0 01
                 790 0 1 1 0 02 0 01
                 795 0 1 1 1 03 0 02
                 800 0 0 1 1 03 0 02
                 805 0 0 1 0 03 0 02
                 890 0 1 1 0 03 0 02
                 895 0 1 1 1 04 0 03
                 900 0 0 1 1 04 0 03
                 905 0 0 1 0 04 0 03
                 990 0 1 1 0 04 0 03
                 995 0 1 1 1 05 0 04
                1000 0 0 1 1 05 0 04
                1005 0 0 1 0 05 0 04
                1090 0 1 1 0 05 0 04
                1095 0 1 1 1 06 0 05
                1100 0 0 1 1 06 0 05
                1105 0 0 1 0 06 0 05
                1190 0 1 1 0 06 0 05
                1195 0 1 1 1 07 0 06
                1200 0 0 1 1 07 0 06
                1205 0 0 1 0 07 0 06
                1290 0 1 1 0 07 0 06
                1295 0 1 1 1 08 0 07
                1300 0 0 1 1 08 0 07
                1305 0 0 1 0 08 0 07
                1390 0 1 1 0 08 0 07
                1395 0 1 1 1 09 0 08
                1400 0 0 1 1 09 0 08
                1405 0 0 1 0 09 0 08
                1490 0 1 1 0 09 0 08
                1495 0 1 1 1 0a 0 09
                1500 0 0 1 1 0a 0 09
                1505 0 0 1 0 0a 0 09
                1590 0 1 1 0 0a 0 09
                1595 0 1 1 1 0b 0 0a
                1600 0 0 1 1 0b 0 0a
                1605 0 0 1 0 0b 0 0a
                1690 0 1 1 0 0b 0 0a
                1695 0 1 1 1 0c 0 0b
                1700 0 0 1 1 0c 0 0b
                1705 0 0 1 0 0c 0 0b
                1790 0 1 1 0 0c 0 0b
                1795 0 1 1 1 0d 0 0c
                1800 0 0 1 1 0d 0 0c
                1805 0 0 1 0 0d 0 0c
                1890 0 1 1 0 0d 0 0c
                1895 0 1 1 1 0e 0 0d
                1900 0 0 1 1 0e 0 0d
                1905 0 0 1 0 0e 0 0d
                1990 0 1 1 0 0e 0 0d
                1995 0 1 1 1 0f 0 0e
                2000 0 0 1 1 0f 0 0e
                2005 0 0 1 0 0f 0 0e
                2090 0 1 1 0 0f 0 0e
                2095 0 1 1 1 10 0 0f
                2100 0 0 1 1 10 0 0f
                2105 0 0 1 0 10 0 0f
                2190 0 1 1 0 10 0 0f
                2195 0 1 1 1 11 0 10
                2200 0 0 1 1 11 0 10
                2205 0 0 1 0 11 0 10
                2290 0 1 1 0 11 0 10
                2295 0 1 1 1 12 0 11
                2300 0 0 1 1 12 0 11
                2305 0 0 1 0 12 0 11
                2390 0 1 1 0 12 0 11
                2395 0 1 1 1 13 0 12
                2400 0 0 1 1 13 0 12
                2405 0 0 1 0 13 0 12
                2490 0 1 1 0 13 0 12
                2495 0 1 1 1 00 0 13
                2500 0 0 1 1 00 0 13
                2505 0 0 1 0 00 0 13
                2590 0 1 1 0 00 0 13
                2595 0 1 1 0 01 1 13
                2600 0 0 1 0 01 1 13
                2690 0 1 1 0 01 1 13
                2695 0 1 1 0 02 1 13
                2700 0 0 1 0 02 1 13
                2790 0 1 1 0 02 1 13
                2795 0 1 1 0 03 1 13
                2800 0 0 1 0 03 1 13
                2890 0 1 1 0 03 1 13
                2895 0 1 1 0 00 1 13
                2900 0 0 1 0 00 1 13
                2990 0 1 1 0 00 1 13
                3000 0 0 1 0 00 1 13
